Get school directory — vz_get_directory • vsezved
…
If you need multiple subsets of the data,
try to do that via the fields (...) argument too, though that may not always be
possible.

If you are downloading a large dump and reusing it in a
pipeline, keep the downloaded XLS files (or your own export) locally (setting
write_files to TRUE), use caching and avoid calling this function repeatedly
(ideally make any reruns conditional on the age of the stored export
or use a pipeline management framework such as targets.

    Examples

vz_get_directory("addresses", uzemi = "CZ010", return_tibbles = TRUE, write_files = TRUE)
#> ℹ Downloaded 637.81 kB
#> # A tibble: 992 × 31
#>    red_izo   ico      zrizovatel uzemi  kraj  okres spravni_urad orp   nazev_orp
#>    <chr>     <chr>    <chr>      <chr>  <chr> <chr> <chr>        <chr> <chr>    
#>  1 600000206 49625918 6          CZ0101 Hlav… Prah… B11000       1101  Praha 1  
#>  2 600000222 61379310 6          CZ0104 Hlav… Prah… B11000       1112  Praha 12 
#>  3 600000231 25765710 5          CZ0104 Hlav… Prah… B11000       1112  Praha 12 
#>  4 600000249 60437171 6          CZ0105 Hlav… Prah… B11000       1113  Praha 13 
#>  5 600000257 25143701 5          CZ0105 Hlav… Prah… B11000       1113  Praha 13 
#>  6 600000265 25637941 5          CZ0105 Hlav… Prah… B11000       1116  Praha 16 
#>  7 600000273 25642863 5          CZ0105 Hlav… Prah… B11000       1113  Praha 13 
#>  8 600000290 49625063 6          CZ0107 Hlav… Prah… B11000       1107  Praha 7  
#>  9 600000303 60447338 6          CZ0108 Hlav… Prah… B11000       1108  Praha 8  
#> 10 600000311 61507962 5          CZ0109 Hlav… Prah… B11000       1109  Praha 9  
#> # ℹ 982 more rows
#> # ℹ 22 more variables: plny_nazev <chr>, zkraceny_nazev <chr>, ulice <chr>,
#> #   c_p <chr>, c_or <chr>, c_obce <chr>, psc <chr>, misto <chr>, telefon <chr>,
#> #   fax <chr>, email_1 <chr>, email_2 <chr>, www <chr>,
#> #   id_dat_schranky_subjektu <chr>, reditel <chr>, x <chr>, je_ovm <chr>,
#> #   zuj <chr>, email_zrizovatele <chr>, id_dat_schranky_zrizovatele <chr>,
#> #   pravni_forma_reditelstvi <chr>, datum_zapisu <chr>
…
