Get school directory — vz_get_directory • vsezved
…
If you need multiple subsets of the data,
try to do that via the fields (...) argument too, though that may not always be
possible.

If you are downloading a large dump and reusing it in a
pipeline, keep the downloaded XLS files (or your own export) locally (setting
write_files to TRUE), use caching and avoid calling this function repeatedly
(ideally make any reruns conditional on the age of the stored export
or use a pipeline management framework such as targets.

    Examples

vz_get_directory("addresses", uzemi = "CZ010", return_tibbles = TRUE, write_files = TRUE)
#> ℹ Downloaded 618.49 kB
#> # A tibble: 963 × 31
#>    red_izo ico   zrizo…¹ uzemi kraj  okres sprav…² orp   nazev…³ plny_…⁴ zkrac…⁵
#>    <chr>   <chr> <chr>   <chr> <chr> <chr> <chr>   <chr> <chr>   <chr>   <chr>  
#>  1 600000… 4962… 6       CZ01… Hlav… Prah… B11000  1101  Praha 1 "Mateř… "Mateř…
#>  2 600000… 6137… 6       CZ01… Hlav… Prah… B11000  1112  Praha … "Círke… "Círke…
#>  3 600000… 2576… 5       CZ01… Hlav… Prah… B11000  1112  Praha … "Modrý… "Modrý…
#>  4 600000… 6043… 6       CZ01… Hlav… Prah… B11000  1113  Praha … "Círke… "Círke…
#>  5 600000… 2514… 5       CZ01… Hlav… Prah… B11000  1113  Praha … "Bilin… "Bilin…
#>  6 600000… 2563… 5       CZ01… Hlav… Prah… B11000  1116  Praha … "Soukr… "Soukr…
#>  7 600000… 2564… 5       CZ01… Hlav… Prah… B11000  1113  Praha … "Soukr… "Soukr…
#>  8 600000… 4962… 6       CZ01… Hlav… Prah… B11000  1107  Praha 7 "Katol… "Katol…
#>  9 600000… 6044… 6       CZ01… Hlav… Prah… B11000  1108  Praha 8 "Círke… "Círke…
#> 10 600000… 6150… 5       CZ01… Hlav… Prah… B11000  1109  Praha 9 "Mateř… "MŠ - …
#> # … with 953 more rows, 20 more variables: ulice <chr>, c_p <chr>, c_or <chr>,
#> #   c_obce <chr>, psc <chr>, misto <chr>, telefon <chr>, fax <chr>,
#> #   email_1 <chr>, email_2 <chr>, www <chr>, id_dat_schranky_subjektu <chr>,
#> #   reditel <chr>, x <chr>, je_ovm <chr>, zuj <chr>, email_zrizovatele <chr>,
#> #   id_dat_schranky_zrizovatele <chr>, pravni_forma_reditelstvi <chr>,
#> #   datum_zapisu <chr>, and abbreviated variable names ¹​zrizovatel,
#> #   ²​spravni_urad, ³​nazev_orp, ⁴​plny_nazev, ⁵​zkraceny_nazev
#> # ℹ Use `print(n = ...)` to see more rows, and `colnames()` to see all variable names
…
